Carpeta de Pruebas/ECG_Cabana_7v.csv

Record Length,2500,Points,0.0,112.0000035E-3,
Sample Interval,2.0000001E-3,s,2.0000001E-3,16.0000008E-3,
Trigger Point,0.0,Samples,4.00000019E-3,-24.00000021E-3,
,,,6.00000005E-3,-8.000000380E-3,
,,,8.000000380E-3,32.00000152E-3,
,,,10.0000007E-3,104.0000021E-3,
Source,CH2,,12.0000001E-3,104.0000021E-3,
Vertical Units,Volts,,14.0000004E-3,56.000001729E-3,
Vertical Scale,200.00000950E-3,,16.0000008E-3,-32.00000152E-3,
Vertical Offset,0,,18.0000011E-3,-152.00001001E-3,
Horizontal Units,s,,20.0000014E-3,-224.00000691E-3,
Horizontal Scale,500.000023749E-3,,22.00000174E-3,-240.00000954E-3,
Pt Fmt,Y,,24.00000021E-3,-168.00001264E-3,
Yzero,0.0,,26.00000054E-3,-64.000003040E-3,
Probe Atten,1.000000,,28.00000086E-3,40.00000283E-3,
,,,30.00000119E-3,56.000001729E-3,
Note,TBS 1102B - 13:05:22   27/08/2018,,32.00000152E-3,0.0,
,,,34.00000185E-3,-88.000006974E-3,
,,,36.00000218E-3,-176.00001395E-3,
,,,38.00000250E-3,-192.00000167E-3,
,,,40.00000283E-3,-120.0000048E-3,
,,,42.00000316E-3,-32.00000152E-3,
,,,44.00000349E-3,80.000005662E-3,
,,,46.00000381E-3,136.0000074E-3,
,,,48.00000042E-3,96.000000834E-3,
,,,50.00000075E-3,16.0000008E-3,
,,,52.00000107E-3,-88.000006974E-3,
,,,54.00000140E-3,-136.0000074E-3,
,,,56.000001729E-3,-112.0000035E-3,
,,,58.000002056E-3,-24.00000021E-3,
,,,60.000002384E-3,72.000004351E-3,
,,,62.000002712E-3,144.0000087E-3,
,,,64.000003040E-3,128.0000061E-3,
,,,65.999999642E-3,56.000001729E-3,
,,,68.000003695E-3,-48.00000042E-3,
,,,70.000000298E-3,-112.0000035E-3,
,,,72.000004351E-3,-120.0000048E-3,
,,,74.000000954E-3,-56.000001729E-3,
,,,76.000005007E-3,48.00000042E-3,
,,,78.000001609E-3,136.0000074E-3,
,,,80.000005662E-3,144.0000087E-3,
,,,82.000002265E-3,96.000000834E-3,
,,,84.000006318E-3,0.0,
,,,86.000002921E-3,-104.0000021E-3,
,,,88.000006974E-3,-136.0000074E-3,
,,,90.000003576E-3,-88.000006974E-3,
,,,92.000007629E-3,0.0,
,,,94.000004232E-3,128.0000061E-3,
,,,96.000000834E-3,152.00001001E-3,
,,,98.000004888E-3,104.0000021E-3,
,,,100.0000015E-3,24.00000021E-3,
,,,102.0000055E-3,-88.000006974E-3,
,,,104.0000021E-3,-112.0000035E-3,
,,,106.0000062E-3,-112.0000035E-3,
,,,108.0000028E-3,-24.00000021E-3,
,,,110.0000069E-3,80.000005662E-3,
,,,112.0000035E-3,128.0000061E-3,
,,,114.0000075E-3,112.0000035E-3,
,,,116.0000041E-3,40.00000283E-3,
,,,118.0000082E-3,-48.00000042E-3,
,,,120.0000048E-3,-112.0000035E-3,
,,,122.0000088E-3,-136.0000074E-3,
,,,124.0000054E-3,-64.000003040E-3,
,,,126.0000020E-3,40.00000283E-3,
,,,128.0000061E-3,128.0000061E-3,
,,,130.0000101E-3,152.00001001E-3,
,,,131.9999993E-3,80.000005662E-3,
,,,134.0000033E-3,-16.0000008E-3,
,,,136.0000074E-3,-104.0000021E-3,
,,,138.0000114E-3,-136.0000074E-3,
,,,140.0000006E-3,-80.000005662E-3,
,,,142.0000046E-3,24.00000021E-3,
,,,144.0000087E-3,112.0000035E-3,
,,,146.0000128E-3,136.0000074E-3,
,,,148.0000019E-3,104.0000021E-3,
,,,150.00000596E-3,32.00000152E-3,
,,,152.00001001E-3,-80.000005662E-3,
,,,154.00001407E-3,-104.0000021E-3,
,,,156.00000322E-3,-96.000000834E-3,
,,,158.00000727E-3,-16.0000008E-3,
,,,160.00001132E-3,72.000004351E-3,
,,,162.00000048E-3,136.0000074E-3,
,,,164.00000453E-3,120.0000048E-3,
,,,166.00000858E-3,48.00000042E-3,
,,,168.00001264E-3,-48.00000042E-3,
,,,170.00000179E-3,-120.0000048E-3,
,,,172.00000584E-3,-128.0000061E-3,
,,,174.00000989E-3,-48.00000042E-3,
,,,176.00001395E-3,40.00000283E-3,
,,,178.00000310E-3,136.0000074E-3,
,,,180.00000715E-3,152.00001001E-3,
,,,182.00001121E-3,80.000005662E-3,
,,,184.00001526E-3,-16.0000008E-3,
,,,186.00000441E-3,-104.0000021E-3,
,,,188.00000846E-3,-128.0000061E-3,
,,,190.00001252E-3,-72.000004351E-3,
,,,192.00000167E-3,8.000000380E-3,
,,,194.00000572E-3,112.0000035E-3,
,,,196.00000978E-3,136.0000074E-3,
,,,198.00001383E-3,112.0000035E-3,
,,,200.00000298E-3,24.00000021E-3,
,,,202.00000703E-3,-80.000005662E-3,
,,,204.00001109E-3,-136.0000074E-3,
,,,206.00001514E-3,-96.000000834E-3,
,,,208.00000429E-3,-8.000000380E-3,
,,,210.00000834E-3,88.000006974E-3,
,,,212.00001240E-3,136.0000074E-3,
,,,214.00001645E-3,144.0000087E-3,
,,,216.00000560E-3,56.000001729E-3,
,,,218.00000966E-3,-48.00000042E-3,
,,,220.00001371E-3,-120.0000048E-3,
,,,222.00001776E-3,-112.0000035E-3,
,,,224.00000691E-3,-40.00000283E-3,
,,,226.00001097E-3,48.00000042E-3,
,,,228.00001502E-3,144.0000087E-3,
,,,230.00000417E-3,136.0000074E-3,
,,,232.00000823E-3,80.000005662E-3,
,,,234.00001228E-3,-24.00000021E-3,
,,,236.00001633E-3,-104.0000021E-3,
,,,238.00000548E-3,-120.0000048E-3,
,,,240.00000954E-3,-72.000004351E-3,
,,,242.00001359E-3,24.00000021E-3,
,,,244.00001764E-3,112.0000035E-3,
,,,246.00000679E-3,136.0000074E-3,
,,,248.00001085E-3,104.0000021E-3,
,,,250.00000000E-3,8.000000380E-3,
,,,252.00000405E-3,-104.0000021E-3,
,,,254.00000811E-3,-144.0000087E-3,
,,,256.00001216E-3,-112.0000035E-3,
,,,258.00001621E-3,-40.00000283E-3,
,,,260.00002027E-3,80.000005662E-3,
,,,262.00002432E-3,136.0000074E-3,
,,,263.99999857E-3,120.0000048E-3,
,,,266.00000262E-3,32.00000152E-3,
,,,268.00000668E-3,-80.000005662E-3,
,,,270.00001073E-3,-136.0000074E-3,
,,,272.00001478E-3,-144.0000087E-3,
,,,274.00001884E-3,-56.000001729E-3,
,,,276.00002289E-3,40.00000283E-3,
,,,278.00002694E-3,120.0000048E-3,
,,,280.00000119E-3,120.0000048E-3,
,,,282.00000525E-3,56.000001729E-3,
,,,284.00000930E-3,-32.00000152E-3,
,,,286.00001335E-3,-136.0000074E-3,
,,,288.00001740E-3,-160.00001132E-3,
,,,290.00002146E-3,-96.000000834E-3,
,,,292.00002551E-3,-16.0000008E-3,
,,,293.99999976E-3,88.000006974E-3,
,,,296.00000381E-3,120.0000048E-3,
,,,298.00000787E-3,80.000005662E-3,
,,,300.00001192E-3,-8.000000380E-3,
,,,302.00001597E-3,-120.0000048E-3,
,,,304.00002003E-3,-168.00001264E-3,
,,,306.00002408E-3,-120.0000048E-3,
,,,308.00002813E-3,-40.00000283E-3,
,,,310.00000238E-3,80.000005662E-3,
,,,312.00000644E-3,128.0000061E-3,
,,,314.00001049E-3,112.0000035E-3,
,,,316.00001454E-3,16.0000008E-3,
,,,318.00001860E-3,-88.000006974E-3,
,,,320.00002265E-3,-144.0000087E-3,
,,,322.00002670E-3,-136.0000074E-3,
,,,324.00000095E-3,-48.00000042E-3,
,,,326.00000501E-3,32.00000152E-3,
,,,328.00000906E-3,128.0000061E-3,
,,,330.00001311E-3,112.0000035E-3,
,,,332.00001717E-3,56.000001729E-3,
,,,334.00002122E-3,-40.00000283E-3,
,,,336.00002527E-3,-112.0000035E-3,
,,,338.00002933E-3,-152.00001001E-3,
,,,340.00000358E-3,-88.000006974E-3,
,,,342.00000763E-3,0.0,
,,,344.00001168E-3,112.0000035E-3,
,,,346.00001574E-3,136.0000074E-3,
,,,348.00001979E-3,96.000000834E-3,
,,,350.00002384E-3,-8.000000380E-3,
,,,352.00002789E-3,-104.0000021E-3,
,,,354.00000215E-3,-144.0000087E-3,
,,,356.00000620E-3,-104.0000021E-3,
,,,358.00001025E-3,-24.00000021E-3,
,,,360.00001431E-3,80.000005662E-3,
,,,362.00001836E-3,128.0000061E-3,
,,,364.00002241E-3,120.0000048E-3,
,,,366.00002646E-3,40.00000283E-3,
,,,368.00003052E-3,-80.000005662E-3,
,,,370.00000477E-3,-136.0000074E-3,
,,,372.00000882E-3,-144.0000087E-3,
,,,374.00001287E-3,-48.00000042E-3,
,,,376.00001693E-3,40.00000283E-3,
,,,378.00002098E-3,120.0000048E-3,
,,,380.00002503E-3,128.0000061E-3,
,,,382.00002909E-3,72.000004351E-3,
,,,384.00000334E-3,-32.00000152E-3,
,,,386.00000739E-3,-128.0000061E-3,
,,,388.00001144E-3,-152.00001001E-3,
,,,390.00001550E-3,-88.000006974E-3,
,,,392.00001955E-3,16.0000008E-3,
,,,394.00002360E-3,120.0000048E-3,
,,,396.00002766E-3,152.00001001E-3,
,,,398.00003171E-3,104.0000021E-3,
,,,400.00000596E-3,-8.000000380E-3,
,,,402.00001001E-3,-104.0000021E-3,
,,,404.000014067E-3,-144.0000087E-3,
,,,406.000018120E-3,-104.0000021E-3,
,,,408.000022173E-3,-16.0000008E-3,
,,,410.000026226E-3,80.000005662E-3,
,,,412.000030279E-3,144.0000087E-3,
,,,414.000034332E-3,112.0000035E-3,
,,,416.000008583E-3,24.00000021E-3,
,,,418.000012636E-3,-64.000003040E-3,
,,,420.000016689E-3,-128.0000061E-3,
,,,422.000020742E-3,-136.0000074E-3,
,,,424.000024796E-3,-48.00000042E-3,
,,,426.000028849E-3,56.000001729E-3,
,,,428.000032902E-3,120.0000048E-3,
,,,430.000007153E-3,136.0000074E-3,
,,,432.000011206E-3,64.000003040E-3,
,,,434.000015259E-3,-40.00000283E-3,
,,,436.000019312E-3,-136.0000074E-3,
,,,438.000023365E-3,-136.0000074E-3,
,,,440.000027418E-3,-80.000005662E-3,
,,,442.000031471E-3,8.000000380E-3,
,,,444.000035524E-3,112.0000035E-3,
,,,446.000009775E-3,152.00001001E-3,
,,,448.000013828E-3,112.0000035E-3,
,,,450.000017881E-3,-8.000000380E-3,
,,,452.000021935E-3,-104.0000021E-3,
,,,454.000025988E-3,-136.0000074E-3,
,,,456.000030041E-3,-112.0000035E-3,
,,,458.000034094E-3,0.0,
,,,460.000008345E-3,80.000005662E-3,
,,,462.000012398E-3,136.0000074E-3,
,,,464.000016451E-3,120.0000048E-3,
,,,466.000020504E-3,32.00000152E-3,
,,,468.000024557E-3,-72.000004351E-3,
,,,470.000028610E-3,-144.0000087E-3,
,,,472.000032663E-3,-120.0000048E-3,
,,,474.000036716E-3,-40.00000283E-3,
,,,476.000010967E-3,48.00000042E-3,
,,,478.000015020E-3,120.0000048E-3,
,,,480.000019073E-3,128.0000061E-3,
,,,482.000023127E-3,64.000003040E-3,
,,,484.000027180E-3,-32.00000152E-3,
,,,486.000031233E-3,-120.0000048E-3,
,,,488.000035286E-3,-144.0000087E-3,
,,,490.000009537E-3,-72.000004351E-3,
,,,492.000013590E-3,8.000000380E-3,
,,,494.000017643E-3,128.0000061E-3,
,,,496.000021696E-3,152.00001001E-3,
,,,498.000025749E-3,104.0000021E-3,
,,,500.000000000E-3,0.0,
,,,502.000033855E-3,-104.0000021E-3,
,,,504.000008106E-3,-144.0000087E-3,
,,,506.000041962E-3,-120.0000048E-3,
,,,508.000016212E-3,-16.0000008E-3,
,,,510.000050068E-3,80.000005662E-3,
,,,512.000024319E-3,136.0000074E-3,
,,,513.999998569E-3,120.0000048E-3,
,,,516.000032425E-3,32.00000152E-3,
,,,518.000006676E-3,-80.000005662E-3,
,,,520.000040531E-3,-128.0000061E-3,
,,,522.000014782E-3,-136.0000074E-3,
,,,524.000048637E-3,-48.00000042E-3,
,,,526.000022888E-3,56.000001729E-3,
,,,527.999997139E-3,136.0000074E-3,
,,,530.000030994E-3,144.0000087E-3,
,,,532.000005245E-3,72.000004351E-3,
,,,534.000039101E-3,-40.00000283E-3,
,,,536.000013351E-3,-120.0000048E-3,
,,,538.000047207E-3,-152.00001001E-3,
,,,540.000021458E-3,-80.000005662E-3,
,,,542.000055313E-3,16.0000008E-3,
,,,544.000029564E-3,112.0000035E-3,
,,,546.000003815E-3,136.0000074E-3,
,,,548.000037670E-3,96.000000834E-3,
,,,550.000011921E-3,0.0,
,,,552.000045776E-3,-88.000006974E-3,
,,,554.000020027E-3,-152.00001001E-3,
,,,556.000053883E-3,-120.0000048E-3,
,,,558.000028133E-3,-16.0000008E-3,
,,,560.000002384E-3,88.000006974E-3,
,,,562.000036240E-3,152.00001001E-3,
,,,564.000010490E-3,120.0000048E-3,
,,,566.000044346E-3,40.00000283E-3,
,,,568.000018597E-3,-80.000005662E-3,
,,,570.000052452E-3,-144.0000087E-3,
,,,572.000026703E-3,-144.0000087E-3,
,,,574.000000954E-3,-48.00000042E-3,
,,,576.000034809E-3,48.00000042E-3,
,,,578.000009060E-3,120.0000048E-3,
,,,580.000042915E-3,128.0000061E-3,
,,,582.000017166E-3,64.000003040E-3,
,,,584.000051022E-3,-32.00000152E-3,
,,,586.000025272E-3,-120.0000048E-3,
,,,587.999999523E-3,-136.0000074E-3,
,,,590.000033379E-3,-72.000004351E-3,
,,,592.000007629E-3,32.00000152E-3,
,,,594.000041485E-3,104.0000021E-3,
,,,596.000015736E-3,144.0000087E-3,
,,,598.000049591E-3,104.0000021E-3,
,,,600.000023842E-3,16.0000008E-3,
,,,602.000057697E-3,-104.0000021E-3,
,,,604.000031948E-3,-144.0000087E-3,
,,,606.000006199E-3,-112.0000035E-3,
,,,608.000040054E-3,-24.00000021E-3,
,,,610.000014305E-3,88.000006974E-3,
,,,612.000048161E-3,136.0000074E-3,
,,,614.000022411E-3,128.0000061E-3,
,,,616.000056267E-3,32.00000152E-3,
,,,618.000030518E-3,-56.000001729E-3,
,,,620.000004768E-3,-128.0000061E-3,
,,,622.000038624E-3,-112.0000035E-3,
,,,624.000012875E-3,-40.00000283E-3,
,,,626.000046730E-3,48.00000042E-3,
,,,628.000020981E-3,120.0000048E-3,
,,,630.000054836E-3,136.0000074E-3,
,,,632.000029087E-3,72.000004351E-3,
,,,634.000003338E-3,-40.00000283E-3,
,,,636.000037193E-3,-120.0000048E-3,
,,,638.000011444E-3,-128.0000061E-3,
,,,640.000045300E-3,-80.000005662E-3,
,,,642.000019550E-3,16.0000008E-3,
,,,644.000053406E-3,112.0000035E-3,
,,,646.000027657E-3,144.0000087E-3,
,,,648.000001907E-3,96.000000834E-3,
,,,650.000035763E-3,8.000000380E-3,
,,,652.000010014E-3,-88.000006974E-3,
,,,654.000043869E-3,-152.00001001E-3,
,,,656.000018120E-3,-112.0000035E-3,
,,,658.000051975E-3,-16.0000008E-3,
,,,660.000026226E-3,96.000000834E-3,
,,,662.000060081E-3,136.0000074E-3,
,,,664.000034332E-3,112.0000035E-3,
,,,666.000008583E-3,32.00000152E-3,
,,,668.000042439E-3,-72.000004351E-3,
,,,670.000016689E-3,-136.0000074E-3,
,,,672.000050545E-3,-128.0000061E-3,
,,,674.000024796E-3,-48.00000042E-3,
,,,676.000058651E-3,56.000001729E-3,
,,,678.000032902E-3,136.0000074E-3,
,,,680.000007153E-3,136.0000074E-3,
,,,682.000041008E-3,88.000006974E-3,
,,,684.000015259E-3,-40.00000283E-3,
,,,686.000049114E-3,-120.0000048E-3,
,,,688.000023365E-3,-144.0000087E-3,
,,,690.000057220E-3,-64.000003040E-3,
,,,692.000031471E-3,24.00000021E-3,
,,,694.000005722E-3,112.0000035E-3,
,,,696.000039577E-3,144.0000087E-3,
,,,698.000013828E-3,104.0000021E-3,
,,,700.000047684E-3,16.0000008E-3,
,,,702.000021935E-3,-96.000000834E-3,
,,,704.000055790E-3,-144.0000087E-3,
,,,706.000030041E-3,-96.000000834E-3,
,,,708.000004292E-3,-8.000000380E-3,
,,,710.000038147E-3,96.000000834E-3,
,,,712.000012398E-3,144.0000087E-3,
,,,714.000046253E-3,128.0000061E-3,
,,,716.000020504E-3,32.00000152E-3,
,,,718.000054359E-3,-64.000003040E-3,
,,,720.000028610E-3,-128.0000061E-3,
,,,722.000062466E-3,-136.0000074E-3,
,,,724.000036716E-3,-48.00000042E-3,
,,,726.000010967E-3,64.000003040E-3,
,,,728.000044823E-3,144.0000087E-3,
,,,730.000019073E-3,136.0000074E-3,
,,,732.000052929E-3,72.000004351E-3,
,,,734.000027180E-3,-40.00000283E-3,
,,,736.000061035E-3,-120.0000048E-3,
,,,738.000035286E-3,-144.0000087E-3,
,,,740.000009537E-3,-72.000004351E-3,
,,,742.000043392E-3,16.0000008E-3,
,,,744.000017643E-3,112.0000035E-3,
,,,746.000051498E-3,144.0000087E-3,
,,,748.000025749E-3,88.000006974E-3,
,,,750.000059605E-3,-8.000000380E-3,
,,,752.000033855E-3,-104.0000021E-3,
,,,754.000008106E-3,-152.00001001E-3,
,,,756.000041962E-3,-120.0000048E-3,
,,,758.000016212E-3,-24.00000021E-3,
,,,760.000050068E-3,88.000006974E-3,
,,,762.000024319E-3,120.0000048E-3,
,,,764.000058174E-3,120.0000048E-3,
,,,766.000032425E-3,40.00000283E-3,
,,,768.000006676E-3,-64.000003040E-3,
,,,770.000040531E-3,-144.0000087E-3,
,,,772.000014782E-3,-144.0000087E-3,
,,,774.000048637E-3,-56.000001729E-3,
,,,776.000022888E-3,56.000001729E-3,
,,,778.000056744E-3,136.0000074E-3,
,,,780.000030994E-3,152.00001001E-3,
,,,782.000064850E-3,64.000003040E-3,
,,,784.000039101E-3,-32.00000152E-3,
,,,786.000013351E-3,-128.0000061E-3,
,,,788.000047207E-3,-152.00001001E-3,
,,,790.000021458E-3,-56.000001729E-3,
,,,792.000055313E-3,16.0000008E-3,
,,,794.000029564E-3,112.0000035E-3,
,,,796.000063419E-3,136.0000074E-3,
,,,798.000037670E-3,88.000006974E-3,
,,,800.000011921E-3,-8.000000380E-3,
,,,802.000045776E-3,-96.000000834E-3,
,,,804.000020027E-3,-144.0000087E-3,
,,,806.000053883E-3,-112.0000035E-3,
,,,808.000028133E-3,-32.00000152E-3,
,,,810.000061989E-3,88.000006974E-3,
,,,812.000036240E-3,152.00001001E-3,
,,,814.000010490E-3,120.0000048E-3,
,,,816.000044346E-3,32.00000152E-3,
,,,818.000018597E-3,-72.000004351E-3,
,,,820.000052452E-3,-128.0000061E-3,
,,,822.000026703E-3,-120.0000048E-3,
,,,824.000060558E-3,-24.00000021E-3,
,,,826.000034809E-3,72.000004351E-3,
,,,828.000068665E-3,168.00001264E-3,
,,,830.000042915E-3,168.00001264E-3,
,,,832.000017166E-3,128.0000061E-3,
,,,834.000051022E-3,32.00000152E-3,
,,,836.000025272E-3,-48.00000042E-3,
,,,838.000059128E-3,-48.00000042E-3,
,,,840.000033379E-3,32.00000152E-3,
,,,842.000067234E-3,112.0000035E-3,
,,,844.000041485E-3,216.00000560E-3,
,,,846.000015736E-3,240.00000954E-3,
,,,848.000049591E-3,168.00001264E-3,
,,,850.000023842E-3,40.00000283E-3,
,,,852.000057697E-3,-128.0000061E-3,
,,,854.000031948E-3,-200.00000298E-3,
,,,856.000065804E-3,-192.00000167E-3,
,,,858.000040054E-3,-104.0000021E-3,
,,,860.000014305E-3,-8.000000380E-3,
,,,862.000048161E-3,32.00000152E-3,
,,,864.000022411E-3,32.00000152E-3,
,,,866.000056267E-3,-56.000001729E-3,
,,,868.000030518E-3,-152.00001001E-3,
,,,870.000064373E-3,-216.00000560E-3,
,,,872.000038624E-3,-216.00000560E-3,
,,,874.000012875E-3,-112.0000035E-3,
,,,876.000046730E-3,-8.000000380E-3,
,,,878.000020981E-3,88.000006974E-3,
,,,880.000054836E-3,112.0000035E-3,
,,,882.000029087E-3,40.00000283E-3,
,,,884.000062943E-3,-40.00000283E-3,
,,,886.000037193E-3,-128.0000061E-3,
,,,888.000071049E-3,-144.0000087E-3,
,,,890.000045300E-3,-96.000000834E-3,
,,,892.000019550E-3,8.000000380E-3,
,,,894.000053406E-3,120.0000048E-3,
,,,896.000027657E-3,144.0000087E-3,
,,,898.000061512E-3,104.0000021E-3,
,,,900.000035763E-3,0.0,
,,,902.000069618E-3,-104.0000021E-3,
,,,904.000043869E-3,-128.0000061E-3,
,,,906.000018120E-3,-88.000006974E-3,
,,,908.000051975E-3,16.0000008E-3,
,,,910.000026226E-3,112.0000035E-3,
,,,912.000060081E-3,144.0000087E-3,
,,,914.000034332E-3,136.0000074E-3,
,,,916.000068188E-3,40.00000283E-3,
,,,918.000042439E-3,-40.00000283E-3,
,,,920.000016689E-3,-112.0000035E-3,
,,,922.000050545E-3,-112.0000035E-3,
,,,924.000024796E-3,-40.00000283E-3,
,,,926.000058651E-3,72.000004351E-3,
,,,928.000032902E-3,128.0000061E-3,
,,,930.000066757E-3,160.00001132E-3,
,,,932.000041008E-3,72.000004351E-3,
,,,934.000015259E-3,-16.0000008E-3,
,,,936.000049114E-3,-120.0000048E-3,
,,,938.000023365E-3,-136.0000074E-3,
,,,940.000057220E-3,-64.000003040E-3,
,,,942.000031471E-3,24.00000021E-3,
,,,944.000065327E-3,120.0000048E-3,
,,,946.000039577E-3,152.00001001E-3,
,,,948.000073433E-3,104.0000021E-3,
,,,950.000047684E-3,8.000000380E-3,
,,,952.000021935E-3,-96.000000834E-3,
,,,954.000055790E-3,-128.0000061E-3,
,,,956.000030041E-3,-104.0000021E-3,
,,,958.000063896E-3,0.0,
,,,960.000038147E-3,112.0000035E-3,
,,,962.000072002E-3,144.0000087E-3,
,,,964.000046253E-3,120.0000048E-3,
,,,966.000020504E-3,48.00000042E-3,
,,,968.000054359E-3,-48.00000042E-3,
,,,970.000028610E-3,-144.0000087E-3,
,,,972.000062466E-3,-128.0000061E-3,
,,,974.000036716E-3,-48.00000042E-3,
,,,976.000070572E-3,56.000001729E-3,
,,,978.000044823E-3,144.0000087E-3,
,,,980.000019073E-3,144.0000087E-3,
,,,982.000052929E-3,72.000004351E-3,
,,,984.000027180E-3,-32.00000152E-3,
,,,986.000061035E-3,-112.0000035E-3,
,,,988.000035286E-3,-128.0000061E-3,
,,,990.000069141E-3,-64.000003040E-3,
,,,992.000043392E-3,40.00000283E-3,
,,,994.000017643E-3,120.0000048E-3,
,,,996.000051498E-3,152.00001001E-3,
,,,998.000025749E-3,112.0000035E-3,
,,,1.000000,8.000000380E-3,
,,,1.0020001,-96.000000834E-3,
,,,1.0040001,-136.0000074E-3,
,,,1.0060000,-112.0000035E-3,
,,,1.0080000,-24.00000021E-3,
,,,1.0100000,88.000006974E-3,
,,,1.0120001,136.0000074E-3,
,,,1.0140001,136.0000074E-3,
,,,1.0160000,56.000001729E-3,
,,,1.0180000,-64.000003040E-3,
,,,1.0200001,-128.0000061E-3,
,,,1.0220001,-128.0000061E-3,
,,,1.0240000,-56.000001729E-3,
,,,1.0260000,64.000003040E-3,
,,,1.0280000,128.0000061E-3,
,,,1.0300001,144.0000087E-3,
,,,1.0320001,72.000004351E-3,
,,,1.0340000,-32.00000152E-3,
,,,1.0360000,-120.0000048E-3,
,,,1.0380001,-128.0000061E-3,
,,,1.0400001,-72.000004351E-3,
,,,1.0420001,16.0000008E-3,
,,,1.0440000,120.0000048E-3,
,,,1.0460000,144.0000087E-3,
,,,1.0480001,104.0000021E-3,
,,,1.0500001,8.000000380E-3,
,,,1.0520000,-88.000006974E-3,
,,,1.0540000,-128.0000061E-3,
,,,1.0560000,-104.0000021E-3,
,,,1.0580001,-8.000000380E-3,
,,,1.0600001,88.000006974E-3,
,,,1.0620000,152.00001001E-3,
,,,1.0640000,136.0000074E-3,
,,,1.0660001,48.00000042E-3,
,,,1.0680001,-72.000004351E-3,
,,,1.0700001,-128.0000061E-3,
,,,1.0720000,-128.0000061E-3,
,,,1.0740000,-56.000001729E-3,
,,,1.0760001,56.000001729E-3,
,,,1.0780001,144.0000087E-3,
,,,1.0800000,136.0000074E-3,
,,,1.0820000,72.000004351E-3,
,,,1.0840001,-40.00000283E-3,
,,,1.0860001,-104.0000021E-3,
,,,1.0880001,-136.0000074E-3,
,,,1.0900000,-96.000000834E-3,
,,,1.0920000,8.000000380E-3,
,,,1.0940001,120.0000048E-3,
,,,1.0960001,136.0000074E-3,
,,,1.0980000,96.000000834E-3,
,,,1.1000000,-8.000000380E-3,
,,,1.1020000,-104.0000021E-3,
,,,1.1040001,-152.00001001E-3,
,,,1.1060001,-128.0000061E-3,
,,,1.1080000,-24.00000021E-3,
,,,1.1100000,72.000004351E-3,
,,,1.1120001,120.0000048E-3,
,,,1.1140001,112.0000035E-3,
